Graph G {
  ordering=out
  
  node [chape=box]
  22 [label="22: LEAF11"];
  41 [label="41: LEAF18"];
  59 [label="59: LEAF26"];
  60 [label="60: LEAF30"];
  61 [label="61: LEAF13"];
  62 [label="62: LEAF31"];
  68 [label="68: LEAF34"];
  73 [label="73: LEAF9"];
  76 [label="76: LEAF38"];
  77 [label="77: LEAF23"];
  82 [label="82: LEAF41"];
  84 [label="84: LEAF42"];
  90 [label="90: LEAF45"];
  92 [label="92: LEAF46"];
  93 [label="93: LEAF14"];
  98 [label="98: LEAF49"];
  103 [label="103: LEAF51"];
  110 [label="110: LEAF10"];
  111 [label="111: LEAF56"];
  113 [label="113: LEAF57"];
  114 [label="114: LEAF1"];
  121 [label="121: LEAF61"];
  123 [label="123: LEAF62"];
  128 [label="128: LEAF2"];
  130 [label="130: LEAF54"];
  133 [label="133: LEAF67"];
  139 [label="139: LEAF70"];
  145 [label="145: LEAF73"];
  152 [label="152: LEAF68"];
  154 [label="154: LEAF63"];
  156 [label="156: LEAF4"];
  157 [label="157: LEAF79"];
  158 [label="158: LEAF71"];
  162 [label="162: LEAF33"];
  165 [label="165: LEAF83"];
  171 [label="171: LEAF86"];
  172 [label="172: LEAF22"];
  173 [label="173: LEAF87"];
  174 [label="174: LEAF44"];
  177 [label="177: LEAF89"];
  179 [label="179: LEAF90"];
  181 [label="181: LEAF91"];
  182 [label="182: LEAF65"];
  184 [label="184: LEAF48"];
  189 [label="189: LEAF95"];
  190 [label="190: LEAF29"];
  191 [label="191: LEAF96"];
  193 [label="193: LEAF97"];
  194 [label="194: LEAF21"];
  197 [label="197: LEAF99"];
  199 [label="199: LEAF100"];
  201 [label="201: LEAF101"];
  203 [label="203: LEAF102"];
  204 [label="204: LEAF88"];
  206 [label="206: LEAF3"];
  208 [label="208: LEAF93"];
  212 [label="212: LEAF55"];
  213 [label="213: LEAF107"];
  215 [label="215: LEAF108"];
  216 [label="216: LEAF72"];
  218 [label="218: LEAF53"];
  220 [label="220: LEAF47"];
  224 [label="224: LEAF39"];
  225 [label="225: LEAF113"];
  226 [label="226: LEAF81"];
  230 [label="230: LEAF58"];
  232 [label="232: LEAF106"];
  233 [label="233: LEAF117"];
  235 [label="235: LEAF118"];
  237 [label="237: LEAF119"];
  245 [label="245: LEAF123"];
  246 [label="246: LEAF94"];
  247 [label="247: LEAF124"];
  252 [label="252: LEAF109"];
  255 [label="255: LEAF128"];
  256 [label="256: LEAF115"];
  257 [label="257: LEAF129"];
  258 [label="258: LEAF98"];
  261 [label="261: LEAF131"];
  263 [label="263: LEAF132"];
  266 [label="266: LEAF116"];
  267 [label="267: LEAF134"];
  269 [label="269: LEAF135"];
  271 [label="271: LEAF136"];
  272 [label="272: LEAF8"];
  273 [label="273: LEAF137"];
  275 [label="275: LEAF138"];
  276 [label="276: LEAF76"];
  277 [label="277: LEAF139"];
  279 [label="279: LEAF140"];
  280 [label="280: LEAF32"];
  281 [label="281: LEAF141"];
  282 [label="282: LEAF50"];
  286 [label="286: LEAF126"];
  287 [label="287: LEAF144"];
  288 [label="288: LEAF104"];
  289 [label="289: LEAF145"];
  291 [label="291: LEAF146"];
  292 [label="292: LEAF25"];
  293 [label="293: LEAF147"];
  294 [label="294: LEAF85"];
  295 [label="295: LEAF148"];
  297 [label="297: LEAF149"];
  299 [label="299: LEAF150"];
  300 [label="300: LEAF27"];
  301 [label="301: LEAF151"];
  302 [label="302: LEAF6"];
  304 [label="304: LEAF16"];
  305 [label="305: LEAF153"];
  306 [label="306: LEAF82"];
  309 [label="309: LEAF155"];
  310 [label="310: LEAF74"];
  311 [label="311: LEAF156"];
  313 [label="313: LEAF157"];
  315 [label="315: LEAF158"];
  317 [label="317: LEAF159"];
  320 [label="320: LEAF103"];
  323 [label="323: LEAF162"];
  325 [label="325: LEAF163"];
  327 [label="327: LEAF164"];
  328 [label="328: LEAF122"];
  329 [label="329: LEAF165"];
  332 [label="332: LEAF160"];
  333 [label="333: LEAF167"];
  334 [label="334: LEAF77"];
  335 [label="335: LEAF168"];
  336 [label="336: LEAF120"];
  338 [label="338: LEAF35"];
  340 [label="340: LEAF142"];
  342 [label="342: LEAF143"];
  344 [label="344: LEAF154"];
  345 [label="345: LEAF173"];
  346 [label="346: LEAF171"];
  347 [label="347: LEAF174"];
  348 [label="348: LEAF169"];
  349 [label="349: LEAF175"];
  350 [label="350: LEAF60"];
  351 [label="351: LEAF176"];
  352 [label="352: LEAF111"];
  353 [label="353: LEAF177"];
  354 [label="354: LEAF110"];
  355 [label="355: LEAF178"];
  357 [label="357: LEAF179"];
  358 [label="358: LEAF17"];
  359 [label="359: LEAF180"];
  360 [label="360: LEAF28"];
  364 [label="364: LEAF69"];
  365 [label="365: LEAF183"];
  366 [label="366: LEAF5"];
  368 [label="368: LEAF166"];
  370 [label="370: LEAF78"];
  371 [label="371: LEAF186"];
  372 [label="372: LEAF152"];
  373 [label="373: LEAF187"];
  376 [label="376: LEAF36"];
  377 [label="377: LEAF189"];
  378 [label="378: LEAF66"];
  380 [label="380: LEAF121"];
  381 [label="381: LEAF191"];
  382 [label="382: LEAF182"];
  383 [label="383: LEAF192"];
  384 [label="384: LEAF12"];
  385 [label="385: LEAF193"];
  386 [label="386: LEAF114"];
  388 [label="388: LEAF24"];
  389 [label="389: LEAF195"];
  390 [label="390: LEAF181"];
  391 [label="391: LEAF196"];
  392 [label="392: LEAF172"];
  393 [label="393: LEAF197"];
  394 [label="394: LEAF52"];
  396 [label="396: LEAF127"];
  397 [label="397: LEAF199"];
  398 [label="398: LEAF130"];
  399 [label="399: LEAF200"];
  400 [label="400: LEAF105"];
  401 [label="401: LEAF201"];
  403 [label="403: LEAF202"];
  404 [label="404: LEAF19"];
  405 [label="405: LEAF203"];
  406 [label="406: LEAF188"];
  407 [label="407: LEAF204"];
  408 [label="408: LEAF194"];
  409 [label="409: LEAF205"];
  411 [label="411: LEAF206"];
  412 [label="412: LEAF15"];
  413 [label="413: LEAF207"];
  414 [label="414: LEAF185"];
  415 [label="415: LEAF208"];
  416 [label="416: LEAF40"];
  417 [label="417: LEAF209"];
  418 [label="418: LEAF59"];
  419 [label="419: LEAF210"];
  420 [label="420: LEAF161"];
  421 [label="421: LEAF211"];
  422 [label="422: LEAF125"];
  423 [label="423: LEAF212"];
  424 [label="424: LEAF112"];
  425 [label="425: LEAF213"];
  426 [label="426: LEAF170"];
  427 [label="427: LEAF214"];
  428 [label="428: LEAF133"];
  429 [label="429: LEAF215"];
  430 [label="430: LEAF37"];
  431 [label="431: LEAF216"];
  432 [label="432: LEAF190"];
  433 [label="433: LEAF217"];
  434 [label="434: LEAF64"];
  435 [label="435: LEAF218"];
  436 [label="436: LEAF43"];
  437 [label="437: LEAF219"];
  438 [label="438: LEAF184"];
  439 [label="439: LEAF220"];
  440 [label="440: LEAF75"];
  441 [label="441: LEAF221"];
  442 [label="442: LEAF84"];
  443 [label="443: LEAF222"];
  444 [label="444: LEAF80"];
  445 [label="445: LEAF223"];
  446 [label="446: LEAF198"];
  447 [label="447: LEAF224"];
  448 [label="448: LEAF20"];
  449 [label="449: LEAF225"];
  450 [label="450: LEAF7"];
  451 [label="451: LEAF226"];
  452 [label="452: LEAF92"];
  453 [label="453: LEAF227"];
  454 [label="454: LEAF228"];
  
  node [chape=ellipse]
  5 -- 2
  1 -- 3
  1 -- 13
  2 -- 1
  2 -- 132
  3 -- 6
  3 -- 7
  4 -- 12
  4 -- 262
  5 -- 26
  5 -- 63
  6 -- 46
  6 -- 140
  7 -- 8
  7 -- 15
  8 -- 10
  8 -- 11
  9 -- 368
  9 -- 18
  10 -- 16
  10 -- 17
  11 -- 20
  11 -- 31
  12 -- 55
  12 -- 39
  13 -- 73
  13 -- 4
  14 -- 19
  14 -- 9
  15 -- 367
  15 -- 14
  16 -- 94
  16 -- 25
  17 -- 33
  17 -- 32
  18 -- 22
  18 -- 169
  19 -- 92
  19 -- 93
  20 -- 111
  20 -- 150
  21 -- 30
  21 -- 269
  23 -- 70
  23 -- 219
  24 -- 45
  24 -- 284
  25 -- 83
  25 -- 37
  26 -- 62
  26 -- 142
  27 -- 34
  27 -- 435
  28 -- 24
  28 -- 229
  29 -- 44
  29 -- 84
  30 -- 90
  30 -- 91
  31 -- 270
  31 -- 21
  32 -- 177
  32 -- 178
  33 -- 165
  33 -- 166
  34 -- 40
  34 -- 41
  35 -- 68
  35 -- 141
  36 -- 122
  36 -- 43
  37 -- 82
  37 -- 36
  38 -- 52
  38 -- 64
  39 -- 58
  39 -- 59
  40 -- 147
  40 -- 168
  42 -- 96
  42 -- 173
  43 -- 74
  43 -- 75
  44 -- 48
  44 -- 49
  45 -- 81
  45 -- 80
  46 -- 78
  46 -- 79
  47 -- 67
  47 -- 125
  48 -- 88
  48 -- 89
  49 -- 106
  49 -- 107
  50 -- 71
  50 -- 77
  51 -- 296
  51 -- 355
  52 -- 60
  52 -- 61
  53 -- 38
  53 -- 57
  54 -- 124
  54 -- 281
  55 -- 56
  55 -- 53
  56 -- 237
  56 -- 238
  57 -- 187
  57 -- 137
  58 -- 191
  58 -- 192
  63 -- 108
  63 -- 131
  64 -- 282
  64 -- 54
  65 -- 123
  65 -- 308
  66 -- 126
  66 -- 294
  67 -- 268
  67 -- 115
  69 -- 436
  69 -- 35
  70 -- 76
  70 -- 50
  71 -- 157
  71 -- 158
  72 -- 261
  72 -- 359
  74 -- 117
  74 -- 118
  75 -- 86
  75 -- 87
  78 -- 215
  78 -- 216
  79 -- 102
  79 -- 103
  80 -- 339
  80 -- 29
  81 -- 135
  81 -- 136
  83 -- 199
  83 -- 200
  85 -- 340
  85 -- 376
  86 -- 437
  86 -- 438
  87 -- 98
  87 -- 99
  88 -- 205
  88 -- 176
  89 -- 113
  89 -- 114
  91 -- 119
  91 -- 120
  94 -- 221
  94 -- 222
  95 -- 341
  95 -- 134
  96 -- 369
  96 -- 185
  97 -- 121
  97 -- 174
  99 -- 211
  99 -- 196
  100 -- 101
  100 -- 418
  101 -- 133
  101 -- 95
  102 -- 104
  102 -- 105
  104 -- 109
  104 -- 110
  105 -- 127
  105 -- 128
  106 -- 171
  106 -- 172
  107 -- 301
  107 -- 302
  108 -- 151
  108 -- 152
  109 -- 225
  109 -- 214
  112 -- 255
  112 -- 149
  115 -- 232
  115 -- 223
  116 -- 224
  116 -- 426
  117 -- 419
  117 -- 420
  118 -- 129
  118 -- 130
  119 -- 351
  119 -- 240
  120 -- 275
  120 -- 276
  122 -- 97
  122 -- 42
  124 -- 164
  124 -- 65
  125 -- 145
  125 -- 146
  126 -- 139
  126 -- 47
  127 -- 143
  127 -- 155
  129 -- 183
  129 -- 184
  131 -- 299
  131 -- 300
  132 -- 193
  132 -- 194
  134 -- 271
  134 -- 272
  135 -- 153
  135 -- 154
  136 -- 203
  136 -- 204
  137 -- 188
  137 -- 138
  138 -- 161
  138 -- 162
  140 -- 293
  140 -- 66
  141 -- 159
  141 -- 274
  142 -- 69
  142 -- 27
  143 -- 217
  143 -- 218
  144 -- 156
  144 -- 292
  146 -- 179
  146 -- 278
  147 -- 235
  147 -- 236
  148 -- 167
  148 -- 405
  149 -- 449
  149 -- 313
  150 -- 256
  150 -- 314
  151 -- 181
  151 -- 182
  153 -- 201
  153 -- 202
  155 -- 291
  155 -- 144
  159 -- 445
  159 -- 446
  160 -- 273
  160 -- 389
  161 -- 246
  161 -- 228
  163 -- 307
  163 -- 410
  164 -- 243
  164 -- 244
  166 -- 413
  166 -- 414
  167 -- 443
  167 -- 444
  168 -- 406
  168 -- 148
  169 -- 295
  169 -- 23
  170 -- 220
  170 -- 356
  175 -- 206
  175 -- 321
  176 -- 305
  176 -- 306
  178 -- 315
  178 -- 316
  180 -- 277
  180 -- 298
  183 -- 453
  183 -- 454
  185 -- 210
  185 -- 209
  186 -- 332
  186 -- 327
  187 -- 197
  187 -- 198
  188 -- 189
  188 -- 190
  192 -- 207
  192 -- 208
  195 -- 212
  195 -- 312
  196 -- 247
  196 -- 248
  198 -- 285
  198 -- 286
  200 -- 335
  200 -- 336
  202 -- 353
  202 -- 264
  205 -- 322
  205 -- 175
  207 -- 289
  207 -- 290
  209 -- 328
  209 -- 186
  210 -- 249
  210 -- 363
  211 -- 233
  211 -- 234
  214 -- 226
  214 -- 213
  217 -- 253
  217 -- 254
  219 -- 170
  219 -- 51
  221 -- 265
  221 -- 266
  222 -- 230
  222 -- 28
  223 -- 425
  223 -- 116
  227 -- 309
  227 -- 310
  228 -- 245
  228 -- 227
  229 -- 257
  229 -- 258
  231 -- 267
  231 -- 451
  234 -- 311
  234 -- 195
  236 -- 392
  236 -- 361
  238 -- 381
  238 -- 241
  239 -- 337
  239 -- 338
  240 -- 352
  240 -- 239
  241 -- 382
  241 -- 242
  242 -- 251
  242 -- 252
  243 -- 329
  243 -- 330
  244 -- 431
  244 -- 432
  248 -- 259
  248 -- 260
  249 -- 279
  249 -- 280
  250 -- 364
  250 -- 384
  251 -- 287
  251 -- 288
  253 -- 397
  253 -- 398
  254 -- 395
  254 -- 396
  259 -- 399
  259 -- 400
  260 -- 319
  260 -- 320
  262 -- 360
  262 -- 72
  264 -- 354
  264 -- 263
  265 -- 403
  265 -- 404
  268 -- 452
  268 -- 231
  270 -- 318
  270 -- 304
  274 -- 390
  274 -- 160
  278 -- 297
  278 -- 180
  283 -- 342
  283 -- 348
  284 -- 417
  284 -- 100
  285 -- 323
  285 -- 324
  290 -- 371
  290 -- 372
  296 -- 325
  296 -- 326
  298 -- 357
  298 -- 358
  303 -- 317
  303 -- 377
  307 -- 345
  307 -- 346
  308 -- 388
  308 -- 163
  312 -- 441
  312 -- 442
  314 -- 450
  314 -- 112
  316 -- 373
  316 -- 374
  318 -- 378
  318 -- 303
  319 -- 333
  319 -- 334
  321 -- 421
  321 -- 422
  322 -- 343
  322 -- 344
  324 -- 423
  324 -- 424
  326 -- 401
  326 -- 402
  330 -- 365
  330 -- 366
  331 -- 370
  331 -- 412
  337 -- 349
  337 -- 350
  339 -- 375
  339 -- 85
  341 -- 347
  341 -- 283
  343 -- 393
  343 -- 394
  356 -- 379
  356 -- 380
  361 -- 391
  361 -- 362
  362 -- 385
  362 -- 386
  363 -- 383
  363 -- 250
  367 -- 439
  367 -- 440
  369 -- 411
  369 -- 331
  374 -- 427
  374 -- 428
  375 -- 407
  375 -- 408
  379 -- 433
  379 -- 434
  387 -- 409
  387 -- 416
  395 -- 447
  395 -- 448
  402 -- 429
  402 -- 430
  410 -- 415
  410 -- 387
}

