Graph G {
  ordering=out
  
  node [chape=box]
  4 [label="4: LEAF1"];
  5 [label="5: LEAF3"];
  11 [label="11: LEAF6"];
  12 [label="12: LEAF4"];
  14 [label="14: LEAF5"];
  15 [label="15: LEAF8"];
  16 [label="16: LEAF7"];
  17 [label="17: LEAF9"];
  18 [label="18: LEAF2"];
  19 [label="19: LEAF10"];
  20 [label="20: LEAF11"];
  
  node [chape=ellipse]
  1 -- 2
  1 -- 3
  1 -- 4
  2 -- 5
  2 -- 6
  3 -- 11
  3 -- 12
  6 -- 7
  6 -- 8
  7 -- 9
  7 -- 10
  8 -- 13
  8 -- 14
  9 -- 15
  9 -- 16
  10 -- 19
  10 -- 20
  13 -- 17
  13 -- 18
}

