Graph G {
  ordering=out
  
  node [chape=box]
  40 [label="40: LEAF18"];
  58 [label="58: LEAF26"];
  59 [label="59: LEAF30"];
  60 [label="60: LEAF13"];
  67 [label="67: LEAF34"];
  72 [label="72: LEAF9"];
  75 [label="75: LEAF38"];
  76 [label="76: LEAF23"];
  81 [label="81: LEAF41"];
  83 [label="83: LEAF42"];
  91 [label="91: LEAF46"];
  92 [label="92: LEAF14"];
  97 [label="97: LEAF49"];
  110 [label="110: LEAF10"];
  111 [label="111: LEAF56"];
  113 [label="113: LEAF57"];
  114 [label="114: LEAF1"];
  123 [label="123: LEAF62"];
  128 [label="128: LEAF2"];
  130 [label="130: LEAF54"];
  133 [label="133: LEAF67"];
  145 [label="145: LEAF73"];
  152 [label="152: LEAF68"];
  156 [label="156: LEAF4"];
  158 [label="158: LEAF71"];
  162 [label="162: LEAF33"];
  165 [label="165: LEAF83"];
  171 [label="171: LEAF86"];
  172 [label="172: LEAF22"];
  173 [label="173: LEAF87"];
  174 [label="174: LEAF44"];
  179 [label="179: LEAF90"];
  181 [label="181: LEAF91"];
  184 [label="184: LEAF48"];
  189 [label="189: LEAF95"];
  190 [label="190: LEAF29"];
  193 [label="193: LEAF97"];
  194 [label="194: LEAF21"];
  197 [label="197: LEAF99"];
  201 [label="201: LEAF101"];
  203 [label="203: LEAF102"];
  204 [label="204: LEAF88"];
  206 [label="206: LEAF3"];
  208 [label="208: LEAF93"];
  212 [label="212: LEAF55"];
  213 [label="213: LEAF107"];
  215 [label="215: LEAF108"];
  224 [label="224: LEAF39"];
  225 [label="225: LEAF113"];
  226 [label="226: LEAF81"];
  230 [label="230: LEAF58"];
  233 [label="233: LEAF117"];
  235 [label="235: LEAF118"];
  237 [label="237: LEAF119"];
  245 [label="245: LEAF123"];
  252 [label="252: LEAF109"];
  256 [label="256: LEAF115"];
  258 [label="258: LEAF98"];
  261 [label="261: LEAF131"];
  266 [label="266: LEAF116"];
  267 [label="267: LEAF134"];
  269 [label="269: LEAF135"];
  271 [label="271: LEAF136"];
  272 [label="272: LEAF8"];
  276 [label="276: LEAF76"];
  277 [label="277: LEAF139"];
  279 [label="279: LEAF140"];
  280 [label="280: LEAF32"];
  281 [label="281: LEAF141"];
  282 [label="282: LEAF50"];
  286 [label="286: LEAF126"];
  287 [label="287: LEAF144"];
  288 [label="288: LEAF104"];
  289 [label="289: LEAF145"];
  291 [label="291: LEAF146"];
  292 [label="292: LEAF25"];
  293 [label="293: LEAF147"];
  294 [label="294: LEAF85"];
  295 [label="295: LEAF148"];
  300 [label="300: LEAF27"];
  301 [label="301: LEAF151"];
  302 [label="302: LEAF6"];
  305 [label="305: LEAF153"];
  310 [label="310: LEAF74"];
  311 [label="311: LEAF156"];
  313 [label="313: LEAF157"];
  315 [label="315: LEAF158"];
  317 [label="317: LEAF159"];
  320 [label="320: LEAF103"];
  323 [label="323: LEAF162"];
  328 [label="328: LEAF122"];
  329 [label="329: LEAF165"];
  332 [label="332: LEAF160"];
  333 [label="333: LEAF167"];
  335 [label="335: LEAF168"];
  338 [label="338: LEAF35"];
  340 [label="340: LEAF142"];
  342 [label="342: LEAF143"];
  344 [label="344: LEAF154"];
  348 [label="348: LEAF169"];
  349 [label="349: LEAF175"];
  351 [label="351: LEAF176"];
  352 [label="352: LEAF111"];
  353 [label="353: LEAF177"];
  354 [label="354: LEAF110"];
  355 [label="355: LEAF178"];
  358 [label="358: LEAF17"];
  359 [label="359: LEAF180"];
  360 [label="360: LEAF28"];
  364 [label="364: LEAF69"];
  365 [label="365: LEAF183"];
  366 [label="366: LEAF5"];
  370 [label="370: LEAF78"];
  372 [label="372: LEAF152"];
  373 [label="373: LEAF187"];
  377 [label="377: LEAF189"];
  378 [label="378: LEAF66"];
  380 [label="380: LEAF121"];
  381 [label="381: LEAF191"];
  382 [label="382: LEAF182"];
  383 [label="383: LEAF192"];
  384 [label="384: LEAF12"];
  385 [label="385: LEAF193"];
  386 [label="386: LEAF114"];
  388 [label="388: LEAF24"];
  389 [label="389: LEAF195"];
  390 [label="390: LEAF181"];
  391 [label="391: LEAF196"];
  392 [label="392: LEAF172"];
  393 [label="393: LEAF197"];
  397 [label="397: LEAF199"];
  398 [label="398: LEAF130"];
  399 [label="399: LEAF200"];
  401 [label="401: LEAF201"];
  405 [label="405: LEAF203"];
  407 [label="407: LEAF204"];
  409 [label="409: LEAF205"];
  411 [label="411: LEAF206"];
  412 [label="412: LEAF15"];
  414 [label="414: LEAF185"];
  415 [label="415: LEAF208"];
  416 [label="416: LEAF40"];
  417 [label="417: LEAF209"];
  418 [label="418: LEAF59"];
  419 [label="419: LEAF210"];
  421 [label="421: LEAF211"];
  422 [label="422: LEAF125"];
  424 [label="424: LEAF112"];
  425 [label="425: LEAF213"];
  429 [label="429: LEAF215"];
  430 [label="430: LEAF37"];
  431 [label="431: LEAF216"];
  432 [label="432: LEAF190"];
  434 [label="434: LEAF64"];
  435 [label="435: LEAF218"];
  436 [label="436: LEAF43"];
  438 [label="438: LEAF184"];
  439 [label="439: LEAF220"];
  442 [label="442: LEAF84"];
  443 [label="443: LEAF222"];
  445 [label="445: LEAF223"];
  446 [label="446: LEAF198"];
  447 [label="447: LEAF224"];
  448 [label="448: LEAF20"];
  449 [label="449: LEAF225"];
  452 [label="452: LEAF92"];
  454 [label="454: LEAF120"];
  455 [label="455: LEAF228"];
  456 [label="456: LEAF65"];
  457 [label="457: LEAF229"];
  458 [label="458: LEAF77"];
  459 [label="459: LEAF230"];
  460 [label="460: LEAF19"];
  461 [label="461: LEAF231"];
  462 [label="462: LEAF11"];
  463 [label="463: LEAF232"];
  464 [label="464: LEAF155"];
  466 [label="466: LEAF207"];
  467 [label="467: LEAF234"];
  468 [label="468: LEAF163"];
  469 [label="469: LEAF235"];
  470 [label="470: LEAF164"];
  471 [label="471: LEAF236"];
  472 [label="472: LEAF214"];
  475 [label="475: LEAF238"];
  476 [label="476: LEAF79"];
  477 [label="477: LEAF239"];
  479 [label="479: LEAF240"];
  480 [label="480: LEAF166"];
  482 [label="482: LEAF45"];
  483 [label="483: LEAF242"];
  484 [label="484: LEAF150"];
  485 [label="485: LEAF243"];
  486 [label="486: LEAF128"];
  487 [label="487: LEAF244"];
  488 [label="488: LEAF72"];
  489 [label="489: LEAF245"];
  490 [label="490: LEAF129"];
  491 [label="491: LEAF246"];
  492 [label="492: LEAF217"];
  493 [label="493: LEAF247"];
  494 [label="494: LEAF127"];
  495 [label="495: LEAF248"];
  496 [label="496: LEAF186"];
  497 [label="497: LEAF249"];
  498 [label="498: LEAF61"];
  499 [label="499: LEAF250"];
  500 [label="500: LEAF100"];
  501 [label="501: LEAF251"];
  503 [label="503: LEAF252"];
  505 [label="505: LEAF253"];
  506 [label="506: LEAF51"];
  507 [label="507: LEAF254"];
  508 [label="508: LEAF194"];
  509 [label="509: LEAF255"];
  511 [label="511: LEAF256"];
  513 [label="513: LEAF257"];
  514 [label="514: LEAF237"];
  515 [label="515: LEAF258"];
  516 [label="516: LEAF227"];
  517 [label="517: LEAF259"];
  518 [label="518: LEAF7"];
  519 [label="519: LEAF260"];
  520 [label="520: LEAF106"];
  521 [label="521: LEAF261"];
  522 [label="522: LEAF170"];
  523 [label="523: LEAF262"];
  524 [label="524: LEAF82"];
  525 [label="525: LEAF263"];
  526 [label="526: LEAF89"];
  527 [label="527: LEAF264"];
  528 [label="528: LEAF63"];
  529 [label="529: LEAF265"];
  530 [label="530: LEAF171"];
  531 [label="531: LEAF266"];
  532 [label="532: LEAF132"];
  533 [label="533: LEAF267"];
  534 [label="534: LEAF70"];
  535 [label="535: LEAF268"];
  536 [label="536: LEAF212"];
  537 [label="537: LEAF269"];
  539 [label="539: LEAF270"];
  540 [label="540: LEAF221"];
  541 [label="541: LEAF271"];
  542 [label="542: LEAF53"];
  543 [label="543: LEAF272"];
  544 [label="544: LEAF75"];
  545 [label="545: LEAF273"];
  546 [label="546: LEAF138"];
  547 [label="547: LEAF274"];
  548 [label="548: LEAF105"];
  549 [label="549: LEAF275"];
  550 [label="550: LEAF47"];
  551 [label="551: LEAF276"];
  553 [label="553: LEAF277"];
  554 [label="554: LEAF36"];
  555 [label="555: LEAF278"];
  556 [label="556: LEAF133"];
  557 [label="557: LEAF279"];
  558 [label="558: LEAF52"];
  559 [label="559: LEAF280"];
  561 [label="561: LEAF281"];
  562 [label="562: LEAF149"];
  563 [label="563: LEAF282"];
  564 [label="564: LEAF226"];
  565 [label="565: LEAF283"];
  566 [label="566: LEAF179"];
  567 [label="567: LEAF284"];
  568 [label="568: LEAF161"];
  569 [label="569: LEAF285"];
  570 [label="570: LEAF16"];
  571 [label="571: LEAF286"];
  572 [label="572: LEAF173"];
  573 [label="573: LEAF287"];
  574 [label="574: LEAF174"];
  575 [label="575: LEAF288"];
  576 [label="576: LEAF60"];
  577 [label="577: LEAF289"];
  578 [label="578: LEAF137"];
  579 [label="579: LEAF290"];
  580 [label="580: LEAF124"];
  581 [label="581: LEAF291"];
  582 [label="582: LEAF94"];
  583 [label="583: LEAF292"];
  585 [label="585: LEAF293"];
  586 [label="586: LEAF31"];
  587 [label="587: LEAF294"];
  588 [label="588: LEAF96"];
  589 [label="589: LEAF295"];
  590 [label="590: LEAF80"];
  591 [label="591: LEAF296"];
  592 [label="592: LEAF219"];
  593 [label="593: LEAF297"];
  594 [label="594: LEAF233"];
  595 [label="595: LEAF298"];
  596 [label="596: LEAF202"];
  597 [label="597: LEAF299"];
  598 [label="598: LEAF241"];
  599 [label="599: LEAF300"];
  600 [label="600: LEAF188"];
  601 [label="601: LEAF301"];
  602 [label="602: LEAF302"];
  
  node [chape=ellipse]
  1 -- 2
  1 -- 3
  1 -- 25
  2 -- 5
  2 -- 8
  3 -- 11
  3 -- 12
  4 -- 26
  4 -- 61
  5 -- 45
  5 -- 46
  6 -- 7
  6 -- 13
  7 -- 9
  7 -- 10
  8 -- 14
  8 -- 6
  9 -- 15
  9 -- 16
  10 -- 19
  10 -- 20
  11 -- 37
  11 -- 57
  12 -- 71
  12 -- 72
  13 -- 17
  13 -- 18
  14 -- 367
  14 -- 368
  15 -- 23
  15 -- 35
  16 -- 31
  16 -- 32
  17 -- 21
  17 -- 22
  18 -- 91
  18 -- 92
  19 -- 111
  19 -- 314
  20 -- 29
  20 -- 30
  21 -- 463
  21 -- 464
  22 -- 49
  22 -- 50
  23 -- 93
  23 -- 28
  24 -- 36
  24 -- 41
  25 -- 62
  25 -- 4
  26 -- 33
  26 -- 34
  27 -- 94
  27 -- 222
  28 -- 48
  28 -- 153
  29 -- 89
  29 -- 90
  30 -- 269
  30 -- 270
  31 -- 177
  31 -- 178
  32 -- 165
  32 -- 166
  33 -- 39
  33 -- 40
  34 -- 67
  34 -- 68
  35 -- 74
  35 -- 24
  36 -- 81
  36 -- 82
  37 -- 51
  37 -- 52
  38 -- 58
  38 -- 191
  39 -- 147
  39 -- 168
  41 -- 95
  41 -- 122
  42 -- 73
  42 -- 86
  43 -- 87
  43 -- 171
  44 -- 79
  44 -- 136
  45 -- 77
  45 -- 78
  46 -- 65
  46 -- 66
  47 -- 105
  47 -- 113
  48 -- 106
  48 -- 88
  49 -- 69
  49 -- 70
  50 -- 169
  50 -- 220
  51 -- 59
  51 -- 60
  52 -- 53
  52 -- 137
  53 -- 63
  53 -- 124
  54 -- 55
  54 -- 187
  55 -- 237
  55 -- 238
  56 -- 138
  56 -- 188
  57 -- 192
  57 -- 38
  61 -- 587
  61 -- 588
  62 -- 107
  62 -- 108
  63 -- 281
  63 -- 282
  64 -- 123
  64 -- 163
  65 -- 125
  65 -- 139
  66 -- 115
  66 -- 116
  68 -- 141
  68 -- 142
  69 -- 75
  69 -- 76
  70 -- 157
  70 -- 158
  71 -- 261
  71 -- 262
  73 -- 117
  73 -- 118
  74 -- 85
  74 -- 42
  77 -- 215
  77 -- 216
  78 -- 101
  78 -- 102
  79 -- 83
  79 -- 84
  80 -- 44
  80 -- 202
  82 -- 199
  82 -- 200
  84 -- 339
  84 -- 340
  85 -- 437
  85 -- 438
  86 -- 97
  86 -- 195
  87 -- 205
  87 -- 176
  88 -- 114
  88 -- 47
  89 -- 483
  89 -- 484
  90 -- 119
  90 -- 120
  93 -- 221
  93 -- 27
  94 -- 99
  94 -- 100
  95 -- 185
  95 -- 186
  96 -- 121
  96 -- 173
  98 -- 196
  98 -- 212
  99 -- 283
  99 -- 284
  100 -- 133
  100 -- 134
  101 -- 103
  101 -- 104
  102 -- 507
  102 -- 508
  103 -- 109
  103 -- 110
  104 -- 127
  104 -- 128
  105 -- 172
  105 -- 43
  106 -- 301
  106 -- 302
  107 -- 131
  107 -- 132
  108 -- 151
  108 -- 152
  109 -- 213
  109 -- 214
  112 -- 150
  112 -- 449
  115 -- 231
  115 -- 232
  116 -- 223
  116 -- 224
  117 -- 419
  117 -- 420
  118 -- 129
  118 -- 130
  119 -- 239
  119 -- 240
  120 -- 275
  120 -- 276
  121 -- 499
  121 -- 500
  122 -- 174
  122 -- 96
  124 -- 164
  124 -- 64
  125 -- 145
  125 -- 180
  126 -- 140
  126 -- 535
  127 -- 143
  127 -- 144
  129 -- 183
  129 -- 184
  131 -- 299
  131 -- 300
  132 -- 193
  132 -- 194
  134 -- 271
  134 -- 272
  135 -- 154
  135 -- 201
  136 -- 203
  136 -- 204
  137 -- 56
  137 -- 54
  138 -- 161
  138 -- 162
  139 -- 536
  139 -- 126
  140 -- 293
  140 -- 294
  141 -- 159
  141 -- 160
  142 -- 435
  142 -- 436
  143 -- 217
  143 -- 218
  144 -- 155
  144 -- 156
  146 -- 179
  146 -- 277
  147 -- 235
  147 -- 236
  148 -- 167
  148 -- 406
  149 -- 313
  149 -- 112
  150 -- 256
  150 -- 488
  151 -- 181
  151 -- 182
  153 -- 135
  153 -- 80
  154 -- 529
  154 -- 530
  155 -- 291
  155 -- 292
  157 -- 477
  157 -- 478
  159 -- 445
  159 -- 446
  160 -- 273
  160 -- 274
  161 -- 227
  161 -- 228
  163 -- 307
  163 -- 308
  164 -- 243
  164 -- 244
  166 -- 413
  166 -- 414
  167 -- 443
  167 -- 444
  168 -- 405
  168 -- 148
  169 -- 295
  169 -- 296
  170 -- 356
  170 -- 551
  175 -- 206
  175 -- 321
  176 -- 305
  176 -- 306
  177 -- 527
  177 -- 528
  178 -- 315
  178 -- 316
  180 -- 278
  180 -- 146
  182 -- 457
  182 -- 458
  183 -- 453
  183 -- 454
  185 -- 209
  185 -- 210
  186 -- 331
  186 -- 332
  187 -- 197
  187 -- 198
  188 -- 189
  188 -- 190
  191 -- 589
  191 -- 590
  192 -- 207
  192 -- 208
  195 -- 211
  195 -- 98
  196 -- 247
  196 -- 248
  198 -- 285
  198 -- 286
  199 -- 501
  199 -- 502
  200 -- 335
  200 -- 336
  202 -- 263
  202 -- 264
  205 -- 322
  205 -- 175
  207 -- 289
  207 -- 290
  209 -- 327
  209 -- 328
  210 -- 249
  210 -- 250
  211 -- 233
  211 -- 234
  214 -- 225
  214 -- 226
  216 -- 489
  216 -- 490
  217 -- 253
  217 -- 254
  218 -- 543
  218 -- 544
  219 -- 355
  219 -- 434
  220 -- 552
  220 -- 170
  221 -- 265
  221 -- 266
  222 -- 229
  222 -- 230
  223 -- 425
  223 -- 426
  227 -- 309
  227 -- 310
  228 -- 245
  228 -- 246
  229 -- 257
  229 -- 258
  231 -- 267
  231 -- 268
  232 -- 521
  232 -- 522
  234 -- 311
  234 -- 312
  236 -- 392
  236 -- 361
  238 -- 241
  238 -- 242
  239 -- 337
  239 -- 338
  240 -- 351
  240 -- 352
  241 -- 381
  241 -- 382
  242 -- 251
  242 -- 252
  243 -- 329
  243 -- 330
  244 -- 431
  244 -- 432
  246 -- 583
  246 -- 584
  247 -- 505
  247 -- 506
  248 -- 259
  248 -- 319
  249 -- 279
  249 -- 280
  250 -- 363
  250 -- 364
  251 -- 287
  251 -- 288
  253 -- 397
  253 -- 398
  254 -- 395
  254 -- 396
  255 -- 487
  255 -- 149
  257 -- 491
  257 -- 492
  259 -- 399
  259 -- 400
  260 -- 320
  260 -- 334
  262 -- 359
  262 -- 360
  263 -- 479
  263 -- 480
  264 -- 353
  264 -- 354
  265 -- 403
  265 -- 404
  268 -- 451
  268 -- 452
  270 -- 303
  270 -- 304
  273 -- 579
  273 -- 580
  274 -- 389
  274 -- 390
  275 -- 547
  275 -- 548
  278 -- 297
  278 -- 298
  283 -- 341
  283 -- 342
  284 -- 417
  284 -- 418
  285 -- 323
  285 -- 324
  290 -- 371
  290 -- 372
  296 -- 325
  296 -- 326
  297 -- 563
  297 -- 564
  298 -- 357
  298 -- 358
  299 -- 485
  299 -- 486
  303 -- 317
  303 -- 318
  304 -- 571
  304 -- 572
  306 -- 525
  306 -- 526
  307 -- 345
  307 -- 346
  308 -- 387
  308 -- 388
  309 -- 465
  309 -- 466
  312 -- 441
  312 -- 442
  314 -- 450
  314 -- 255
  316 -- 373
  316 -- 374
  318 -- 377
  318 -- 378
  319 -- 333
  319 -- 260
  321 -- 421
  321 -- 422
  322 -- 343
  322 -- 344
  324 -- 423
  324 -- 424
  325 -- 469
  325 -- 470
  326 -- 401
  326 -- 402
  327 -- 471
  327 -- 472
  330 -- 365
  330 -- 366
  331 -- 369
  331 -- 370
  334 -- 459
  334 -- 460
  336 -- 455
  336 -- 456
  337 -- 349
  337 -- 350
  339 -- 375
  339 -- 376
  341 -- 347
  341 -- 348
  343 -- 393
  343 -- 394
  345 -- 561
  345 -- 562
  346 -- 513
  346 -- 514
  347 -- 575
  347 -- 576
  350 -- 577
  350 -- 578
  356 -- 380
  356 -- 379
  357 -- 567
  357 -- 568
  361 -- 391
  361 -- 362
  362 -- 385
  362 -- 386
  363 -- 383
  363 -- 384
  367 -- 439
  367 -- 440
  368 -- 481
  368 -- 482
  369 -- 411
  369 -- 412
  371 -- 497
  371 -- 498
  374 -- 427
  374 -- 428
  375 -- 407
  375 -- 408
  376 -- 555
  376 -- 556
  379 -- 433
  379 -- 219
  387 -- 409
  387 -- 410
  394 -- 559
  394 -- 560
  395 -- 447
  395 -- 448
  396 -- 495
  396 -- 496
  400 -- 539
  400 -- 540
  402 -- 429
  402 -- 430
  403 -- 597
  403 -- 598
  404 -- 461
  404 -- 462
  406 -- 601
  406 -- 602
  408 -- 509
  408 -- 510
  410 -- 415
  410 -- 416
  413 -- 467
  413 -- 468
  420 -- 569
  420 -- 570
  423 -- 537
  423 -- 538
  426 -- 503
  426 -- 504
  427 -- 473
  427 -- 474
  428 -- 557
  428 -- 558
  433 -- 493
  433 -- 494
  437 -- 553
  437 -- 554
  440 -- 545
  440 -- 546
  441 -- 541
  441 -- 542
  444 -- 591
  444 -- 592
  450 -- 475
  450 -- 476
  451 -- 565
  451 -- 566
  453 -- 517
  453 -- 518
  465 -- 585
  465 -- 586
  473 -- 515
  473 -- 516
  474 -- 519
  474 -- 520
  478 -- 533
  478 -- 534
  481 -- 599
  481 -- 600
  502 -- 511
  502 -- 512
  504 -- 581
  504 -- 582
  510 -- 523
  510 -- 524
  512 -- 531
  512 -- 532
  538 -- 549
  538 -- 550
  552 -- 593
  552 -- 594
  560 -- 573
  560 -- 574
  584 -- 595
  584 -- 596
}

